…
## ── Conflicts ──────────────────────────────────────────────────────────────────────────────────────────────────────────────────── tidyverse_conflicts() ──
## ✖ dplyr::filter() masks stats::filter()
## ✖ dplyr::lag()    masks stats::lag()

library("fivethirtyeight")

tarantino %>%
  filter(!is.na(word)) %>%
  count(word, movie) %>%
  spread(movie, n, fill = 0) %>%
  gather(movie, count, 2:ncol(.))

## # A tibble: 420 x 3
##    word     movie            count
##    <chr>    <chr>            <dbl>
##  1 ass      Django Unchained    28
##  2 asses    Django Unchained     0
##  3 asshead  Django Unchained     0
##  4 asshole  Django Unchained     0
##  5 assholes Django Unchained     0
##  6 bastard  Django Unchained     1
##  7 bastards Django Unchained     0
##  8 bitch    Django Unchained    10
##  9 bitches  Django Unchained     5
## 10 bullshit Django Unchained     0
## # ... with 410 more rows
…
