…
## ── Conflicts ────────────────────────────────────────────────── tidyverse_conflicts() ──
## ✖ dplyr::filter() masks stats::filter()
## ✖ dplyr::lag()    masks stats::lag()

gss_cat %>% 
  select(year, marital, race, rincome) %>%
    mutate(
        marital_race = fct_cross(marital, race, sep = " & ")
    )

## # A tibble: 21,483 x 5
##     year marital       race  rincome        marital_race         
##    <int> <fct>         <fct> <fct>          <fct>                
##  1  2000 Never married White $8000 to 9999  Never married & White
##  2  2000 Divorced      White $8000 to 9999  Divorced & White     
##  3  2000 Widowed       White Not applicable Widowed & White      
##  4  2000 Never married White Not applicable Never married & White
##  5  2000 Divorced      White Not applicable Divorced & White     
##  6  2000 Married       White $20000 - 24999 Married & White      
##  7  2000 Never married White $25000 or more Never married & White
##  8  2000 Divorced      White $7000 to 7999  Divorced & White     
##  9  2000 Married       White $25000 or more Married & White      
## 10  2000 Married       White $25000 or more Married & White      
## # … with 21,473 more rows

fct_match is an entirely new function that allows us to test if specific levels exist inside a factor. This allows us to filter by multiple conditions:

gss_cat %>%
  filter(fct_match(marital, c("Married", "Divorced")))

## # A tibble: 13,500 x 9
##     year marital    age race  rincome    partyid    relig  denom    tvhours
##    <int> <fct>    <int> <fct> <fct>      <fct>      <fct>  <fct>      <int>
##  1  2000 Divorced    48 White $8000 to … Not str r… Prote… Baptist…      NA
##  2  2000 Divorced    25 White Not appli… Not str d… None   Not app…       1
##  3  2000 Married     25 White $20000 - … Strong de… Prote… Souther…      NA
##  4  2000 Divorced    44 White $7000 to … Ind,near … Prote… Luthera…      NA
##  5  2000 Married     44 White $25000 or… Not str d… Prote… Other          0
##  6  2000 Married     47 White $25000 or… Strong re… Prote… Souther…       3
##  7  2000 Married     53 White $25000 or… Not str d… Prote… Other          2
##  8  2000 Married     52 White $25000 or… Ind,near … None   Not app…      NA
##  9  2000 Married     52 White $25000 or… Strong de… Prote… Souther…       1
## 10  2000 Married     51 White $25000 or… Strong re… Prote… United …      NA
## # … with 13,490 more rows
…
