…
library("tidytext")
library("schrute")

I’d like to tidy up the data a little bit:

theoffice_characters <- theoffice %>%
  select(season:text) %>%
  mutate(season = as.numeric(season),
         episode = as.numeric(episode))
theoffice_characters

## # A tibble: 55,130 x 5
##    season episode episode_name character text                              
##     <dbl>   <dbl> <chr>        <chr>     <chr>                             
##  1      1       1 " Pilot"     Michael   " All right Jim. Your quarterlies…
##  2      1       1 " Pilot"     Jim       " Oh, I told you. I couldn't clos…
##  3      1       1 " Pilot"     Michael   " So you've come to the master fo…
##  4      1       1 " Pilot"     Jim       " Actually, you called me in here…
##  5      1       1 " Pilot"     Michael   " All right. Well, let me show yo…
##  6      1       1 " Pilot"     Michael   " So that's the way it's done."   
##  7      1       1 " Pilot"     Michael   " I've, uh, I've been at Dunder M…
##  8      1       1 " Pilot"     Pam       " Well. I don't know."            
##  9      1       1 " Pilot"     Michael   " If you think she's cute now, yo…
## 10      1       1 " Pilot"     Pam       " What?"                          
## # … with 55,120 more rows
…
theoffice_characters %>%
  filter(character %in% c("Dwight", "Jim")) %>%
  select(character, text, document) %>%
  unnest_tokens(ngrams, text, token = "ngrams", n = 2) %>%
  separate(ngrams, into = c("word_1",
                            "word_2")) %>%
  filter(!word_1 %in% stop_words$word,
         !word_2 %in% stop_words$word) %>%
  count(character, word_1, word_2, sort = TRUE)

## Warning: Expected 2 pieces. Additional pieces discarded in 12531 rows [21,
## 22, 23, 24, 25, 35, 36, 76, 119, 120, 137, 138, 141, 142, 153, 154, 166,
## 169, 170, 175, ...].

## # A tibble: 9,426 x 4
##    character word_1    word_2       n
##    <chr>     <chr>     <chr>    <int>
##  1 Jim       <NA>      <NA>       874
##  2 Dwight    <NA>      <NA>       662
##  3 Dwight    dwight    schrute     47
##  4 Dwight    hey       hey         42
##  5 Dwight    ha        ha          41
##  6 Dwight    dunder    mifflin     34
##  7 Dwight    regional  manager     33
##  8 Dwight    wait      wait        24
##  9 Dwight    assistant regional    20
## 10 Dwight    la        la          17
## # … with 9,416 more rows
…
