Visible Data - Recipes for learning
…
It’s now much easier to operate on these lists of ingredients by using map* functions within mutate, for instance I can create a column containing the number of ingredients. Now we discover the joint longest recipes contain a ridiculous 32 ingredients.

recipes_df %>%
  mutate(n.ingredients = map_int(ingredients, length)) %>%
  arrange(desc(n.ingredients))

# A tibble: 56,498 × 3
   cuisine          ingredients n.ingredients
   <chr>            <list>              <int>
 1 EasternEuropean  <chr [32]>             32
 2 SouthernEuropean <chr [32]>             32
 3 NorthAmerican    <chr [30]>             30
 4 NorthAmerican    <chr [29]>             29
 5 NorthAmerican    <chr [29]>             29
 6 NorthAmerican    <chr [29]>             29
 7 EasternEuropean  <chr [28]>             28
 8 NorthAmerican    <chr [28]>             28
 9 NorthAmerican    <chr [27]>             27
10 NorthAmerican    <chr [26]>             26
# … with 56,488 more rows

With our ingredients in a list column it’s now also easy to filter recipes by specific ingredients:

recipes_df %>%
  filter(str_detect(ingredients, "garlic"))

# A tibble: 16,893 × 2
   cuisine ingredients
   <chr>   <list>     
 1 African <chr [16]> 
 2 African <chr [9]>  
 3 African <chr [10]> 
 4 African <chr [12]> 
 5 African <chr [11]> 
 6 African <chr [8]>  
 7 African <chr [9]>  
 8 African <chr [12]> 
 9 African <chr [15]> 
10 African <chr [10]> 
# … with 16,883 more rows
…
