Visible Data - 2023-08-21 Restart in less than an hour
…
The issue is that {highcharter} needs explicitly empty levels, which the complete() function provides.

gss_completed_data <- gss_cat %>% 
  summarise(n_in_subcategory = n(), .by = c(partyid, marital)) %>% 
  mutate(n_in_category = sum(n_in_subcategory), .by = partyid) %>% 
  mutate(partyid = fct_reorder(partyid, n_in_category)) %>% 
  complete(partyid, 
           marital, 
           fill = list(n_in_category = 0,
                       n_in_subcategory = 0)) %>% 
  arrange(desc(n_in_category))

gss_completed_data

# A tibble: 60 × 4
   partyid          marital       n_in_subcategory n_in_category
   <fct>            <fct>                    <int>         <int>
 1 Independent      No answer                    4          4119
 2 Independent      Never married             1181          4119
 3 Independent      Separated                  198          4119
 4 Independent      Divorced                   661          4119
 5 Independent      Widowed                    270          4119
 6 Independent      Married                   1805          4119
 7 Not str democrat No answer                    1          3690
 8 Not str democrat Never married             1035          3690
 9 Not str democrat Separated                  126          3690
10 Not str democrat Divorced                   601          3690
# ℹ 50 more rows
…
