Visible Data - 2022-09-01 Dataviz - Top 10 Sankey
…
dates_charts[1] %>% 
  get_week_top100_data()

# A tibble: 100 × 6
   date_week_start position_current position_previous title         artist label
   <date>          <chr>            <chr>             <chr>         <chr>  <chr>
 1 1999-12-26      1                1                 I HAVE A DRE… WESTL… RCA  
 2 1999-12-26      2                2                 THE MILLENNI… CLIFF… PAPI…
 3 1999-12-26      3                3                 IMAGINE       JOHN … PARL…
 4 1999-12-26      4                8                 MR. HANKEY T… MR HA… COLU…
 5 1999-12-26      5                6                 RE-REWIND TH… ARTFU… RELE…
 6 1999-12-26      6                5                 TWO IN A MIL… S CLU… POLY…
 7 1999-12-26      7                4                 COGNOSCENTI … CUBAN… EMI  
 8 1999-12-26      8                7                 SAY YOU'LL B… STEPS  JIVE 
 9 1999-12-26      9                10                KISS (WHEN T… VENGA… POSI…
10 1999-12-26      10               11                BACK IN MY L… ALICE… POSI…
# … with 90 more rows
…
There are 399 more unique songs when splitting the data by Title, Artist and Label.

After looking at these everything feel okay. I can go with title and artist ids.

data_charts_with_ids %>% 
  group_by(title, artist) %>% 
  mutate(n_labels = n_distinct(label)) %>% 
  ungroup() %>% 
  filter(n_labels > 1) %>% 
  select(title, artist, label, contains("id"), n_labels) %>% 
  unique() %>% 
  arrange(title, artist)

# A tibble: 784 × 6
   title             artist       label            id_title_ar…¹ id_ti…² n_lab…³
   <chr>             <chr>        <chr>                    <int>   <int>   <int>
 1 1999              PRINCE       WARNER BROS                 89      89       2
 2 1999              PRINCE       WEA                         89      90       2
 3 21 GUNS           GREEN DAY    REPRISE                    115     116       2
 4 21 GUNS           GREEN DAY    WARNER BROS                115     117       2
 5 21ST CENTURY LIFE SAM SPARRO   UNIVERSAL                  124     127       2
 6 21ST CENTURY LIFE SAM SPARRO   ISLAND                     124     126       2
 7 22                LILY ALLEN   PARLOPHONE                 125     128       2
 8 22                LILY ALLEN   REGAL RECORDINGS           125     129       2
 9 4 IN THE MORNING  GWEN STEFANI INTERSCOPE                 175     179       2
10 4 IN THE MORNING  GWEN STEFANI POLYDOR                    175     180       2
# … with 774 more rows, and abbreviated variable names ¹​id_title_artist,
#   ²​id_title_artist_label, ³​n_labels
…
Look at re-releases

data_charts_with_rereleases %>% 
  select(date_week_start, title, starts_with("position"), nth_time_on_chart, everything()) %>% 
  filter(title == "SHAPE OF YOU")

# A tibble: 98 × 12
   date_wee…¹ title posit…² posit…³ posit…⁴ nth_t…⁵ artist label id_ti…⁶ id_ti…⁷
   <date>     <chr>   <dbl>   <dbl>   <dbl>   <dbl> <chr>  <chr>   <int>   <int>
 1 2017-01-15 SHAP…       1      NA       1       1 ED SH… ASYL…   12527   12802
 2 2017-01-22 SHAP…       1       1       1       1 ED SH… ASYL…   12527   12802
 3 2017-01-29 SHAP…       1       1       1       1 ED SH… ASYL…   12527   12802
 4 2017-02-05 SHAP…       1       1       1       1 ED SH… ASYL…   12527   12802
 5 2017-02-12 SHAP…       1       1       1       1 ED SH… ASYL…   12527   12802
 6 2017-02-19 SHAP…       1       1       1       1 ED SH… ASYL…   12527   12802
 7 2017-02-26 SHAP…       1       1       1       1 ED SH… ASYL…   12527   12802
 8 2017-03-05 SHAP…       1       1       1       1 ED SH… ASYL…   12527   12802
 9 2017-03-12 SHAP…       1       1       1       1 ED SH… ASYL…   12527   12802
10 2017-03-19 SHAP…       1       1       1       1 ED SH… ASYL…   12527   12802
# … with 88 more rows, 2 more variables: status <chr>, check_rerelease <dbl>,
#   and abbreviated variable names ¹​date_week_start, ²​position_current,
#   ³​position_previous, ⁴​position_next, ⁵​nth_time_on_chart, ⁶​id_title_artist,
#   ⁷​id_title_artist_label
…
data_top10_2022 <- data_3rd_millenium_charts %>% 
  filter(
    # date_week_start > ymd("2022-01-01"),
    #      date_week_start < ymd("2023-01-01"),
         year == 2022,
         position_current <= 10) %>% 
  select(date_week_start, starts_with("position"), title, id_title_artist, everything()) %>%
  mutate(id_song_nth_time = paste(id_title_artist, nth_time_on_chart)) %>% 
  arrange(date_week_start, position_current)

data_top10_2022 %>% 
  select(id_song_nth_time, everything())

# A tibble: 520 × 13
   id_so…¹ date_wee…² posit…³ posit…⁴ posit…⁵ title id_ti…⁶ artist label id_ti…⁷
   <chr>   <date>       <dbl>   <dbl>   <dbl> <chr>   <int> <chr>  <chr>   <int>
 1 9354 1  2022-01-02       1       2      40 MERR…    9354 ED SH… ATLA…    9551
 2 8148 15 2022-01-02       2       3      71 LAST…    8148 WHAM   RCA      8316
 3 610 15  2022-01-02       3       4      56 ALL …     610 MARIA… COLU…     621
 4 4359 17 2022-01-02       4       7      57 FAIR…    4359 POGUE… WARN…    4445
 5 11973 … 2022-01-02       5       9      92 ROCK…   11973 BREND… MCA     12232
 6 9355 15 2022-01-02       6       8      54 MERR…    9355 SHAKI… RCA      9552
 7 7577 11 2022-01-02       7      11      49 IT'S…    7577 MICHA… REPR…    7735
 8 2808 1  2022-01-02       8      10      83 COME…    2808 GEORG… COLU…    2857
 9 7632 12 2022-01-02       9      15      82 IT'S…    7632 ANDY … SONY…    7792
10 3894 15 2022-01-02      10      12      76 DRIV…    3894 CHRIS… WARN…    3970
# … with 510 more rows, 3 more variables: status <chr>,
#   nth_time_on_chart <dbl>, year <dbl>, and abbreviated variable names
#   ¹​id_song_nth_time, ²​date_week_start, ³​position_current, ⁴​position_previous,
#   ⁵​position_next, ⁶​id_title_artist, ⁷​id_title_artist_label
…
