Visible Data - Where is the centre of University of Oxford?
…
 cut(floor(x), breaks = c(seq(lower, upper, by = by), Inf),
     right = FALSE, labels = labs)
}

colleges_by_century <- college_shapes %>%
  group_by(century = century_cut(foundation.year, lower = 1200, upper = 2100, by = 100))

## Messy code to display just the name and century of creation
display_colleges_by_century <- colleges_by_century %>%
  select(name, century)
st_geometry(display_colleges_by_century) <- NULL
display_colleges_by_century %>%
  arrange(century)

# A tibble: 38 × 2
# Groups:   century [9]
   name                century  
   <chr>               <fct>    
 1 Balliol College     1200-1299
 2 Hertford College    1200-1299
 3 Merton College      1200-1299
 4 St Edmund Hall      1200-1299
 5 University College  1200-1299
 6 Exeter College      1300-1399
 7 New College         1300-1399
 8 Oriel College       1300-1399
 9 The Queen's College 1300-1399
10 All Souls College   1400-1499
# … with 28 more rows
…
