Visible Data - The Office: Who is who?
…
library("tidytext")
library("schrute")

I’d like to tidy up the data a little bit:

Code

theoffice_characters <- theoffice %>%
  select(season:text) %>%
  mutate(season = as.numeric(season),
         episode = as.numeric(episode))
theoffice_characters

# A tibble: 55,130 × 7
   season episode episode_name director   writer                 character text 
    <dbl>   <dbl> <chr>        <chr>      <chr>                  <chr>     <chr>
 1      1       1 Pilot        Ken Kwapis Ricky Gervais;Stephen… Michael   All …
 2      1       1 Pilot        Ken Kwapis Ricky Gervais;Stephen… Jim       Oh, …
 3      1       1 Pilot        Ken Kwapis Ricky Gervais;Stephen… Michael   So y…
 4      1       1 Pilot        Ken Kwapis Ricky Gervais;Stephen… Jim       Actu…
 5      1       1 Pilot        Ken Kwapis Ricky Gervais;Stephen… Michael   All …
 6      1       1 Pilot        Ken Kwapis Ricky Gervais;Stephen… Michael   Yes,…
 7      1       1 Pilot        Ken Kwapis Ricky Gervais;Stephen… Michael   I've…
 8      1       1 Pilot        Ken Kwapis Ricky Gervais;Stephen… Pam       Well…
 9      1       1 Pilot        Ken Kwapis Ricky Gervais;Stephen… Michael   If y…
10      1       1 Pilot        Ken Kwapis Ricky Gervais;Stephen… Pam       What?
# … with 55,120 more rows
…
theoffice_characters %>%
  filter(character %in% c("Dwight", "Jim")) %>%
  select(character, text, document) %>%
  unnest_tokens(ngrams, text, token = "ngrams", n = 2) %>%
  separate(ngrams, into = c("word_1",
                            "word_2")) %>%
  filter(!word_1 %in% stop_words$word,
         !word_2 %in% stop_words$word) %>%
  count(character, word_1, word_2, sort = TRUE)

Warning: Expected 2 pieces. Additional pieces discarded in 12536 rows [5, 6, 69,
70, 126, 127, 128, 132, 133, 134, 144, 145, 156, 165, 166, 198, 241, 242, 268,
269, ...].

# A tibble: 8,636 × 4
   character word_1    word_2       n
   <chr>     <chr>     <chr>    <int>
 1 Jim       <NA>      <NA>       936
 2 Dwight    <NA>      <NA>       737
 3 Dwight    dwight    schrute     50
 4 Dwight    hey       hey         42
 5 Dwight    ha        ha          37
 6 Dwight    dunder    mifflin     36
 7 Dwight    regional  manager     33
 8 Dwight    wait      wait        24
 9 Dwight    assistant regional    20
10 Dwight    la        la          17
# … with 8,626 more rows
…
