Data Quest: Motorway Services UK – Visible Data
…
library("readxl")
data_type_of_retailer <- read_excel(quarto_here("retailer_types.xlsx"))

data_services_retailers <- data_long_retailers %>% 
  left_join(data_type_of_retailer) %>% 
  mutate(across(starts_with("is"), ~ case_when(
    .x == "Y" ~ TRUE,
    .x == "N" ~ FALSE,
    TRUE ~ NA
    )))

data_services_retailers

# A tibble: 650 × 8
   retailer service_station direction is_food_retailer is_restaurant is_takeaway
   <chr>    <chr>           <chr>     <lgl>            <lgl>         <lgl>      
 1 Starbuc… Abington Servi… Directio… TRUE             NA            TRUE       
 2 Papa Jo… Abington Servi… Directio… TRUE             TRUE          TRUE       
 3 Burger … Abington Servi… Directio… TRUE             TRUE          TRUE       
 4 Dunkin'… Abington Servi… Directio… TRUE             FALSE         TRUE       
 5 Harry R… Abington Servi… Directio… TRUE             TRUE          TRUE       
 6 Costa    Annandale Wate… Directio… TRUE             FALSE         TRUE       
 7 Restbite Annandale Wate… Directio… TRUE             NA            NA         
 8 The Bur… Annandale Wate… Directio… TRUE             TRUE          TRUE       
 9 KFC      Baldock Servic… Directio… TRUE             TRUE          TRUE       
10 Le Peti… Baldock Servic… Directio… TRUE             FALSE         TRUE       
# ℹ 640 more rows
# ℹ 2 more variables: is_prepared_food_only <lgl>, is_coffee_shop <lgl>
…
data_services_info <- data_wide_services %>% 
  left_join(data_paired_services) %>% 
  mutate(is_pair = ifelse(is.na(pair_name), FALSE, TRUE))

data_services_info

# A tibble: 106 × 14
   name   motorway where postcode type  operator is_ireland p_charges has_charge
   <chr>  <chr>    <chr> <chr>    <chr> <chr>    <lgl>      <chr>     <chr>     
 1 Abing… M74      at J… ML12 6RG Sing… Welcome… FALSE      "Cars fr… <NA>      
 2 Annan… A74(M)   at J… DG11 1HD Sing… RoadChef FALSE      "Parking… Yes (More…
 3 Baldo… A1(M)    at J… SG7 5TR  Sing… Extra M… FALSE      "First t… <NA>      
 4 Beaco… M40      at J… HP9 2SE  Sing… Extra M… FALSE       <NA>     <NA>      
 5 Birch… M62      betw… OL10 2HQ Sepa… Moto     FALSE      "Car - £… <NA>      
 6 Birch… M11      at J… CM23 5QZ Sing… Welcome… FALSE      "Parking… <NA>      
 7 Black… M65      at J… BB3 0AT  Sing… Extra M… FALSE      "Parking… <NA>      
 8 Blyth… A1(M)    at J… S81 8HG  Sing… Moto     FALSE      "Free fo… Yes (More…
 9 Bothw… M74      betw… G71 8BG  Faci… RoadChef FALSE      "Parking… Yes (More…
10 Bridg… M5       at J… TA6 6TS  Sing… Moto     FALSE      "Cars - … <NA>      
# ℹ 96 more rows
# ℹ 5 more variables: is_single <lgl>, is_twin <lgl>, has_walk <lgl>,
#   pair_name <chr>, is_pair <lgl>
…
